{ "email": [
	{"host": "test.com", 
		"ssl": true, 
		"username": "name@test.com", 
		"password": "foobar", 
		"account": "name@test.com",
		"quota": "Mailbox",
		"warn_level": 0.9,
		"enable": true}

],

"pushbullet_key": ""
}
